RandomForest
…
Data are very similar, i dont think this is a good feature, but people from Cherbourg has higher rates of survival.

Fares

I continue with Fare. I suppose that higher wealhty, more chances to survive (more boats on decks or not, it can spoil sightseens). Lets do analysis (if it implied Survived I must take full[1,891,])

outcomes=full[1:891,]%>%group_by(Fare,Survived)%>%summarise(num_passengers=n())
print(outcomes)

## Source: local data frame [330 x 3]
## Groups: Fare [?]
## 
##      Fare Survived num_passengers
##     <dbl>    <int>          <int>
## 1  0.0000        0             14
## 2  0.0000        1              1
## 3  4.0125        0              1
## 4  5.0000        0              1
## 5  6.2375        0              1
## 6  6.4375        0              1
## 7  6.4500        0              1
## 8  6.4958        0              2
## 9  6.7500        0              2
## 10 6.8583        0              1
## # ... with 320 more rows
…
